<svg xmlns="http://www.w3.org/2000/svg" xmlns:xlink="http://www.w3.org/1999/xlink" preserveAspectRatio="xMidYMid" viewBox="0 0 443 370" id="el_UdjHcrcqS"><style>@-webkit-keyframes kf_el_y-2_PDBJJd_an_zJm_-UnaS{0%{-webkit-transform: translate(29.24799919128418px, 45.99224090576172px) rotate(5deg) translate(-29.24799919128418px, -45.99224090576172px);transform: translate(29.24799919128418px, 45.99224090576172px) rotate(5deg) translate(-29.24799919128418px, -45.99224090576172px);}16.67%{-webkit-transform: translate(29.24799919128418px, 45.99224090576172px) rotate(0deg) translate(-29.24799919128418px, -45.99224090576172px);transform: translate(29.24799919128418px, 45.99224090576172px) rotate(0deg) translate(-29.24799919128418px, -45.99224090576172px);}33.33%{-webkit-transform: translate(29.24799919128418px, 45.99224090576172px) rotate(-5deg) translate(-29.24799919128418px, -45.99224090576172px);transform: translate(29.24799919128418px, 45.99224090576172px) rotate(-5deg) translate(-29.24799919128418px, -45.99224090576172px);}50%{-webkit-transform: translate(29.24799919128418px, 45.99224090576172px) rotate(0deg) translate(-29.24799919128418px, -45.99224090576172px);transform: translate(29.24799919128418px, 45.99224090576172px) rotate(0deg) translate(-29.24799919128418px, -45.99224090576172px);}66.67%{-webkit-transform: translate(29.24799919128418px, 45.99224090576172px) rotate(5deg) translate(-29.24799919128418px, -45.99224090576172px);transform: translate(29.24799919128418px, 45.99224090576172px) rotate(5deg) translate(-29.24799919128418px, -45.99224090576172px);}83.33%{-webkit-transform: translate(29.24799919128418px, 45.99224090576172px) rotate(0deg) translate(-29.24799919128418px, -45.99224090576172px);transform: translate(29.24799919128418px, 45.99224090576172px) rotate(0deg) translate(-29.24799919128418px, -45.99224090576172px);}93.33%{-webkit-transform: translate(29.24799919128418px, 45.99224090576172px) rotate(-5deg) translate(-29.24799919128418px, -45.99224090576172px);transform: translate(29.24799919128418px, 45.99224090576172px) rotate(-5deg) translate(-29.24799919128418px, -45.99224090576172px);}100%{-webkit-transform: translate(29.24799919128418px, 45.99224090576172px) rotate(-5deg) translate(-29.24799919128418px, -45.99224090576172px);transform: translate(29.24799919128418px, 45.99224090576172px) rotate(-5deg) translate(-29.24799919128418px, -45.99224090576172px);}}@keyframes kf_el_y-2_PDBJJd_an_zJm_-UnaS{0%{-webkit-transform: translate(29.24799919128418px, 45.99224090576172px) rotate(5deg) translate(-29.24799919128418px, -45.99224090576172px);transform: translate(29.24799919128418px, 45.99224090576172px) rotate(5deg) translate(-29.24799919128418px, -45.99224090576172px);}16.67%{-webkit-transform: translate(29.24799919128418px, 45.99224090576172px) rotate(0deg) translate(-29.24799919128418px, -45.99224090576172px);transform: translate(29.24799919128418px, 45.99224090576172px) rotate(0deg) translate(-29.24799919128418px, -45.99224090576172px);}33.33%{-webkit-transform: translate(29.24799919128418px, 45.99224090576172px) rotate(-5deg) translate(-29.24799919128418px, -45.99224090576172px);transform: translate(29.24799919128418px, 45.99224090576172px) rotate(-5deg) translate(-29.24799919128418px, -45.99224090576172px);}50%{-webkit-transform: translate(29.24799919128418px, 45.99224090576172px) rotate(0deg) translate(-29.24799919128418px, -45.99224090576172px);transform: translate(29.24799919128418px, 45.99224090576172px) rotate(0deg) translate(-29.24799919128418px, -45.99224090576172px);}66.67%{-webkit-transform: translate(29.24799919128418px, 45.99224090576172px) rotate(5deg) translate(-29.24799919128418px, -45.99224090576172px);transform: translate(29.24799919128418px, 45.99224090576172px) rotate(5deg) translate(-29.24799919128418px, -45.99224090576172px);}83.33%{-webkit-transform: translate(29.24799919128418px, 45.99224090576172px) rotate(0deg) translate(-29.24799919128418px, -45.99224090576172px);transform: translate(29.24799919128418px, 45.99224090576172px) rotate(0deg) translate(-29.24799919128418px, -45.99224090576172px);}93.33%{-webkit-transform: translate(29.24799919128418px, 45.99224090576172px) rotate(-5deg) translate(-29.24799919128418px, -45.99224090576172px);transform: translate(29.24799919128418px, 45.99224090576172px) rotate(-5deg) translate(-29.24799919128418px, -45.99224090576172px);}100%{-webkit-transform: translate(29.24799919128418px, 45.99224090576172px) rotate(-5deg) translate(-29.24799919128418px, -45.99224090576172px);transform: translate(29.24799919128418px, 45.99224090576172px) rotate(-5deg) translate(-29.24799919128418px, -45.99224090576172px);}}#el_UdjHcrcqS *{-webkit-animation-duration: 3s;animation-duration: 3s;-webkit-animation-iteration-count: infinite;animation-iteration-count: infinite;-webkit-animation-timing-function: cubic-bezier(0, 0, 1, 1);animation-timing-function: cubic-bezier(0, 0, 1, 1);}#el_KCPzr1msxk{fill: #f3c150;stroke: #f3c150;stroke-width: 13px;fill-rule: evenodd;}#el_sbrEHeFWbM{fill: #f3c150;stroke: #f3c150;stroke-width: 13px;fill-rule: evenodd;}#el_9apATS62ca{fill: #f9e3b2;stroke: #24241e;stroke-width: 2px;}#el_gFQKm7GS6P{fill: #f3c150;fill-rule: evenodd;}#el_jPKvbJwz5D{fill: #f3c150;fill-rule: evenodd;stroke: #24241e;stroke-width: 2px;}#el_sWBCXjk-Dr{fill: #f3c150;fill-rule: evenodd;stroke: #24241e;stroke-width: 2px;}#el_TvPB0R93Sh{fill: #f3c150;stroke: #f3c150;stroke-width: 13px;fill-rule: evenodd;}#el_xkG2Zeixzi{fill: #f3c150;stroke: #f3c150;stroke-width: 13px;fill-rule: evenodd;}#el_r8cnT4sB42{fill: #f3c150;stroke: #f3c150;stroke-width: 13px;fill-rule: evenodd;}#el_YxM_4zKpl3{fill: #f3c150;fill-rule: evenodd;stroke: #24241e;stroke-width: 2px;}#el_AMd3kuV6BX{fill: #f3c150;fill-rule: evenodd;stroke: #24241e;stroke-width: 2px;}#el_sEFS2SbvxM{fill: #f3c150;fill-rule: evenodd;stroke: #24241e;stroke-width: 2px;}#el_NOwugQQRut{fill: #f3c150;fill-rule: evenodd;stroke: #24241e;stroke-width: 2px;}#el_ffHUQwFmzD{fill: #f3c150;fill-rule: evenodd;stroke: #24241e;stroke-width: 2px;}#el_X5wUk4t65rk{fill: #f3c150;fill-rule: evenodd;stroke: #24241e;stroke-width: 2px;}#el_JE-6qPqVssI{fill: #f3c150;fill-rule: evenodd;stroke: #24241e;stroke-width: 2px;}#el_EyDcmcG55su{fill-rule: evenodd;fill: #f9e3b2;stroke: #24241e;stroke-width: 2px;}#el_Gs8KcCfIMts{fill: #f3c150;fill-rule: evenodd;stroke: #24241e;stroke-width: 2px;}#el_FRwXrjh3Aaq{fill: #f3c150;fill-rule: evenodd;stroke-width: 2px;stroke: #000;}#el_by4DspfUWUD{stroke: #24241e;stroke-width: 2px;fill: #000;}#el_3Wb1umRYMi-{stroke: #24241e;stroke-width: 2px;fill: #000;}#el_dTJo7VNwEGG{fill: #fbc69a;}#el_yttldedGO9a{fill: #fbc69a;}#el_y-2_PDBJJd_an_zJm_-UnaS{-webkit-animation-fill-mode: backwards;animation-fill-mode: backwards;-webkit-transform: translate(29.24799919128418px, 45.99224090576172px) rotate(5deg) translate(-29.24799919128418px, -45.99224090576172px);transform: translate(29.24799919128418px, 45.99224090576172px) rotate(5deg) translate(-29.24799919128418px, -45.99224090576172px);-webkit-animation-name: kf_el_y-2_PDBJJd_an_zJm_-UnaS;animation-name: kf_el_y-2_PDBJJd_an_zJm_-UnaS;-webkit-animation-timing-function: cubic-bezier(0, 0, 1, 1);animation-timing-function: cubic-bezier(0, 0, 1, 1);}</style>
  <defs>
    
  </defs>
  <g id="el_y-2_PDBJJd_an_zJm_-UnaS" data-animator-group="true" data-animator-type="1"><g id="el_y-2_PDBJJd">
    <path d="M33.668,255.939 C34.604,269.238 32.026,283.876 29.248,288.012 C33.685,285.457 47.554,283.038 61.370,285.092 C75.615,287.212 93.416,293.855 109.193,278.504 C136.924,251.525 120.243,221.417 88.834,232.749 C96.418,225.976 111.481,214.608 118.557,218.696 C119.186,219.059 120.508,218.797 120.398,217.922 C119.538,211.150 106.776,200.131 104.545,198.752 C101.840,197.063 101.687,199.534 101.734,199.770 C103.122,206.764 97.269,219.661 87.195,230.002 C98.361,200.687 69.965,181.954 42.127,208.410 C26.169,223.573 32.645,241.399 33.668,255.939 Z" id="el_KCPzr1msxk"/>
    <path d="M373.508,283.163 C386.559,280.443 401.412,281.024 405.884,283.220 C402.754,279.167 398.487,265.751 398.661,251.785 C398.841,237.383 403.023,218.849 385.685,205.286 C355.214,181.446 327.630,202.033 343.093,231.627 C335.359,225.026 322.064,211.633 325.160,204.070 C325.436,203.398 324.998,202.124 324.146,202.351 C317.552,204.116 308.354,218.247 307.287,220.643 C305.979,223.552 308.448,223.370 308.676,223.292 C315.419,220.973 328.987,225.034 340.592,233.622 C310.039,226.510 295.305,257.172 325.273,281.190 C342.449,294.957 359.238,286.138 373.508,283.163 Z" id="el_sbrEHeFWbM"/>
    <ellipse cx="215" cy="181" rx="139" ry="133" id="el_9apATS62ca"/>
    <path d="M138.000,75.685 C138.000,75.685 173.368,37.835 225.943,47.603 C278.518,57.370 261.311,92.779 261.311,92.779 L155.206,94.000 L138.000,75.685 Z" id="el_gFQKm7GS6P"/>
    <path d="M200.000,74.000 C200.000,74.000 150.000,184.000 100.000,190.000 " id="el_jPKvbJwz5D"/>
    <path d="M196.000,66.000 C196.000,66.000 146.000,176.000 96.000,182.000 " id="el_sWBCXjk-Dr"/>
    <path d="M169.000,58.000 C169.000,58.000 88.000,159.000 81.000,159.000 C74.000,159.000 100.000,105.000 114.000,93.000 C128.000,81.000 162.000,59.000 169.000,58.000 Z" id="el_TvPB0R93Sh"/>
    <path d="M355.002,139.945 C355.002,139.945 227.009,64.994 225.846,57.064 C224.682,49.134 290.236,69.601 306.171,83.464 C322.106,97.327 352.705,132.181 355.002,139.945 Z" id="el_xkG2Zeixzi"/>
    <path d="M346.776,139.007 C346.776,139.007 232.746,60.427 232.071,52.701 C231.396,44.975 290.694,67.886 304.664,82.053 C318.634,96.219 345.049,131.388 346.776,139.007 Z" id="el_r8cnT4sB42"/>
    <path d="M185.000,65.000 C185.000,65.000 135.000,175.000 85.000,181.000 " id="el_YxM_4zKpl3"/>
    <path d="M176.000,60.000 C176.000,60.000 126.000,170.000 76.000,176.000 " id="el_AMd3kuV6BX"/>
    <path d="M164.000,60.000 C164.000,60.000 114.000,170.000 64.000,176.000 " id="el_sEFS2SbvxM"/>
    <path d="M201.000,74.000 C201.000,74.000 267.000,162.000 320.000,170.000 " id="el_NOwugQQRut"/>
    <path d="M207.000,66.000 C207.000,66.000 273.000,154.000 326.000,162.000 " id="el_ffHUQwFmzD"/>
    <path d="M213.000,61.000 C213.000,61.000 279.000,149.000 332.000,157.000 " id="el_X5wUk4t65rk"/>
    <path d="M224.000,57.000 C224.000,57.000 290.000,145.000 343.000,153.000 " id="el_JE-6qPqVssI"/>
    <path d="M152.000,240.000 C159.000,247.000 159.000,244.000 159.000,244.000 C159.000,244.000 165.000,265.000 204.000,272.000 C243.000,279.000 252.000,271.000 260.000,268.000 C268.000,265.000 281.000,254.000 290.000,238.000 C299.000,222.000 300.000,219.000 299.000,212.000 " id="el_EyDcmcG55su"/>
    <path d="M231.000,51.000 C231.000,51.000 297.000,139.000 350.000,147.000 " id="el_Gs8KcCfIMts"/>
    <path d="M247.692,55.000 C247.692,55.000 313.863,141.149 367.000,148.981 " id="el_FRwXrjh3Aaq"/>
    <circle cx="266" cy="181" r="5" id="el_by4DspfUWUD"/>
    <circle cx="176" cy="196" r="5" id="el_3Wb1umRYMi-"/>
    <circle cx="150.5" cy="232.5" r="20.5" id="el_dTJo7VNwEGG"/>
    <circle cx="310.5" cy="201.5" r="20.5" id="el_yttldedGO9a"/>
  </g></g>
</svg>