<svg xmlns="http://www.w3.org/2000/svg" xmlns:xlink="http://www.w3.org/1999/xlink" preserveAspectRatio="xMidYMid" width="170" height="170" viewBox="0 0 170 170">
  <defs>
    <style>
      .cls-1 {
        fill: #feffff;
        fill-rule: evenodd;
      }
    </style>
  </defs>
  <path d="M85.000,51.000 C102.892,51.000 117.396,65.504 117.396,83.396 C117.396,101.288 102.892,115.792 85.000,115.792 C67.108,115.792 52.604,101.288 52.604,83.396 C52.604,65.504 67.108,51.000 85.000,51.000 Z" class="cls-1"/>
  <path d="M138.406,78.264 L163.104,78.264 C166.912,78.264 170.000,81.352 170.000,85.160 L170.000,85.160 C170.000,88.969 166.912,92.057 163.104,92.057 L138.406,92.057 C134.597,92.057 131.509,88.969 131.509,85.160 L131.509,85.160 C131.509,81.352 134.597,78.264 138.406,78.264 Z" class="cls-1"/>
  <path d="M6.896,78.264 L31.594,78.264 C35.403,78.264 38.491,81.352 38.491,85.160 L38.491,85.160 C38.491,88.969 35.403,92.057 31.594,92.057 L6.896,92.057 C3.088,92.057 0.000,88.969 0.000,85.160 L0.000,85.160 C0.000,81.352 3.088,78.264 6.896,78.264 Z" class="cls-1"/>
  <path d="M85.160,131.509 L85.160,131.509 C88.969,131.509 92.057,134.597 92.057,138.406 L92.057,163.104 C92.057,166.912 88.969,170.000 85.160,170.000 L85.160,170.000 C81.352,170.000 78.264,166.912 78.264,163.104 L78.264,138.406 C78.264,134.597 81.352,131.509 85.160,131.509 Z" class="cls-1"/>
  <path d="M85.160,0.000 L85.160,0.000 C88.969,0.000 92.057,3.088 92.057,6.896 L92.057,31.594 C92.057,35.403 88.969,38.491 85.160,38.491 L85.160,38.491 C81.352,38.491 78.264,35.403 78.264,31.594 L78.264,6.896 C78.264,3.088 81.352,0.000 85.160,0.000 Z" class="cls-1"/>
  <path d="M118.048,117.887 C120.741,115.194 125.107,115.194 127.800,117.887 L145.264,135.351 C147.958,138.044 147.958,142.411 145.264,145.104 C142.571,147.797 138.205,147.797 135.512,145.104 L118.048,127.640 C115.354,124.947 115.354,120.580 118.048,117.887 Z" class="cls-1"/>
  <path d="M25.056,24.896 C27.749,22.203 32.116,22.203 34.809,24.896 L52.273,42.360 C54.966,45.053 54.966,49.420 52.273,52.113 C49.580,54.806 45.214,54.806 42.520,52.113 L25.056,34.649 C22.363,31.956 22.363,27.589 25.056,24.896 Z" class="cls-1"/>
  <path d="M118.013,51.987 C115.323,49.296 115.323,44.933 118.013,42.243 L135.462,24.794 C138.153,22.103 142.515,22.103 145.206,24.794 C147.897,27.485 147.897,31.847 145.206,34.538 L127.757,51.987 C125.067,54.677 120.704,54.677 118.013,51.987 Z" class="cls-1"/>
  <path d="M25.105,144.895 C22.414,142.205 22.414,137.842 25.105,135.151 L42.553,117.703 C45.244,115.012 49.607,115.012 52.297,117.703 C54.988,120.393 54.988,124.756 52.297,127.447 L34.849,144.895 C32.158,147.586 27.795,147.586 25.105,144.895 Z" class="cls-1"/>
</svg>
