<?xml version="1.0" encoding="iso-8859-1"?>
<!-- Generator: Adobe Illustrator 19.0.0, SVG Export Plug-In . SVG Version: 6.00 Build 0)  -->
<svg version="1.1" id="Capa_1" xmlns="http://www.w3.org/2000/svg" xmlns:xlink="http://www.w3.org/1999/xlink" x="0px" y="0px"
	 viewBox="0 0 512 512" style="enable-background:new 0 0 512 512;" xml:space="preserve">
<g>
	<g>
		<path d="M373.76,498.347l-25.6-34.133c-1.613-2.15-4.139-3.413-6.827-3.413H170.667c-2.688,0-5.214,1.263-6.827,3.413
			l-25.6,34.133c-1.937,2.586-2.253,6.042-0.811,8.934c1.451,2.893,4.403,4.719,7.637,4.719h221.867
			c3.234,0,6.187-1.826,7.629-4.719C376.013,504.388,375.697,500.932,373.76,498.347z M162.133,494.933l12.8-17.067h162.133
			l12.8,17.067H162.133z"/>
	</g>
</g>
<g>
	<g>
		<path d="M401.067,494.933H110.933c-4.71,0-8.533,3.823-8.533,8.533c0,4.71,3.823,8.533,8.533,8.533h290.133
			c4.71,0,8.533-3.823,8.533-8.533C409.599,498.756,405.777,494.933,401.067,494.933z"/>
	</g>
</g>
<g>
	<g>
		<path d="M307.2,426.667H204.8c-4.71,0-8.533,3.823-8.533,8.533v34.133c0,4.71,3.823,8.533,8.533,8.533h102.4
			c4.71,0,8.533-3.823,8.533-8.533V435.2C315.733,430.49,311.91,426.667,307.2,426.667z M298.667,460.8h-85.333v-17.067h85.333
			V460.8z"/>
	</g>
</g>
<g>
	<g>
		<path d="M418.133,76.8h-281.6c-2.534,0-4.932,1.126-6.554,3.072l-42.667,51.2c-2.637,3.157-2.637,7.757,0,10.923l42.667,51.2
			c1.621,1.946,4.019,3.072,6.554,3.072h281.6c4.71,0,8.533-3.823,8.533-8.533v-102.4C426.667,80.623,422.844,76.8,418.133,76.8z
			 M409.6,179.2H140.527l-35.558-42.667l35.558-42.667H409.6V179.2z"/>
	</g>
</g>
<g>
	<g>
		<path d="M375.467,145.067H255.966c-4.71,0-8.533,3.823-8.533,8.533c0,4.71,3.823,8.533,8.533,8.533h119.501
			c4.71,0,8.533-3.823,8.533-8.533C384,148.89,380.177,145.067,375.467,145.067z"/>
	</g>
</g>
<g>
	<g>
		<path d="M290.099,110.933H170.667c-4.71,0-8.533,3.823-8.533,8.533c0,4.71,3.823,8.533,8.533,8.533H290.1
			c4.71,0,8.533-3.823,8.533-8.533C298.633,114.756,294.81,110.933,290.099,110.933z"/>
	</g>
</g>
<g>
	<g>
		<path d="M375.467,110.933h-51.234c-4.71,0-8.533,3.823-8.533,8.533c0,4.71,3.823,8.533,8.533,8.533h51.234
			c4.71,0,8.533-3.823,8.533-8.533C384,114.756,380.177,110.933,375.467,110.933z"/>
	</g>
</g>
<g>
	<g>
		<path d="M221.833,145.067h-51.166c-4.71,0-8.533,3.823-8.533,8.533c0,4.71,3.823,8.533,8.533,8.533h51.166
			c4.71,0,8.533-3.823,8.533-8.533C230.366,148.89,226.543,145.067,221.833,145.067z"/>
	</g>
</g>
<g>
	<g>
		<path d="M424.687,301.739l-42.667-51.2c-1.621-1.946-4.019-3.072-6.554-3.072h-281.6c-4.71,0-8.533,3.823-8.533,8.533v102.4
			c0,4.71,3.823,8.533,8.533,8.533h281.6c2.534,0,4.932-1.126,6.554-3.072l42.667-51.2
			C427.324,309.504,427.324,304.905,424.687,301.739z M371.473,349.867H102.4v-85.333h269.073l35.558,42.667L371.473,349.867z"/>
	</g>
</g>
<g>
	<g>
		<path d="M256.034,281.6H136.533c-4.71,0-8.533,3.823-8.533,8.533c0,4.71,3.823,8.533,8.533,8.533h119.501
			c4.71,0,8.533-3.823,8.533-8.533C264.567,285.423,260.745,281.6,256.034,281.6z"/>
	</g>
</g>
<g>
	<g>
		<path d="M341.333,315.733H221.901c-4.71,0-8.533,3.823-8.533,8.533c0,4.71,3.823,8.533,8.533,8.533h119.433
			c4.71,0,8.533-3.823,8.533-8.533C349.867,319.556,346.044,315.733,341.333,315.733z"/>
	</g>
</g>
<g>
	<g>
		<path d="M187.767,315.733h-51.234c-4.71,0-8.533,3.823-8.533,8.533c0,4.71,3.823,8.533,8.533,8.533h51.234
			c4.71,0,8.533-3.823,8.533-8.533C196.3,319.556,192.478,315.733,187.767,315.733z"/>
	</g>
</g>
<g>
	<g>
		<path d="M341.333,281.6h-51.166c-4.71,0-8.533,3.823-8.533,8.533c0,4.71,3.823,8.533,8.533,8.533h51.166
			c4.71,0,8.533-3.823,8.533-8.533C349.866,285.423,346.044,281.6,341.333,281.6z"/>
	</g>
</g>
<g>
	<g>
		<path d="M256,0c-14.114,0-25.6,11.486-25.6,25.6v59.733c0,4.71,3.823,8.533,8.533,8.533h34.133c4.71,0,8.533-3.823,8.533-8.533
			V25.6C281.6,11.486,270.114,0,256,0z M247.466,76.8V25.6c0-4.702,3.823-8.533,8.533-8.533c4.71,0,8.533,3.831,8.533,8.533v51.2
			H247.466z"/>
	</g>
</g>
<g>
	<g>
		<path d="M273.067,179.2h-34.133c-4.71,0-8.533,3.823-8.533,8.533V256c0,4.71,3.823,8.533,8.533,8.533h34.133
			c4.71,0,8.533-3.823,8.533-8.533v-68.267C281.6,183.023,277.777,179.2,273.067,179.2z M264.533,247.467h-17.067v-51.2h17.067
			V247.467z"/>
	</g>
</g>
<g>
	<g>
		<path d="M273.067,349.867h-34.133c-4.71,0-8.533,3.823-8.533,8.533v76.8c0,4.71,3.823,8.533,8.533,8.533h34.133
			c4.71,0,8.533-3.823,8.533-8.533v-76.8C281.6,353.69,277.777,349.867,273.067,349.867z M264.533,426.667h-17.067v-59.733h17.067
			V426.667z"/>
	</g>
</g>
<g>
</g>
<g>
</g>
<g>
</g>
<g>
</g>
<g>
</g>
<g>
</g>
<g>
</g>
<g>
</g>
<g>
</g>
<g>
</g>
<g>
</g>
<g>
</g>
<g>
</g>
<g>
</g>
<g>
</g>
</svg>
